<svg xmlns="http://www.w3.org/2000/svg" width="295" height="40" viewBox="0 0 295 40">
  <g id="Rectangle_123" data-name="Rectangle 123" fill="none" stroke="#b62418" stroke-width="2">
    <rect width="295" height="40" rx="20" stroke="none"/>
    <rect x="1" y="1" width="293" height="38" rx="19" fill="none"/>
  </g>
</svg>
